…
    ## ── Conflicts ─────────────────────────────────────────────────────── tidyverse_conflicts() ──
    ## ✖ dplyr::filter() masks stats::filter()
    ## ✖ dplyr::lag()    masks stats::lag()

``` r
library(knitr)
```

``` r
library(p8105.datasets)
data("instacart")
instacart
```

    ## # A tibble: 1,384,617 x 15
    ##    order_id product_id add_to_cart_ord… reordered user_id eval_set
    ##       <int>      <int>            <int>     <int>   <int> <chr>   
    ##  1        1      49302                1         1  112108 train   
    ##  2        1      11109                2         1  112108 train   
    ##  3        1      10246                3         0  112108 train   
    ##  4        1      49683                4         0  112108 train   
    ##  5        1      43633                5         1  112108 train   
    ##  6        1      13176                6         0  112108 train   
    ##  7        1      47209                7         0  112108 train   
    ##  8        1      22035                8         1  112108 train   
    ##  9       36      39612                1         0   79431 train   
    ## 10       36      19660                2         1   79431 train   
    ## # … with 1,384,607 more rows, and 9 more variables: order_number <int>,
    ## #   order_dow <int>, order_hour_of_day <int>,
    ## #   days_since_prior_order <int>, product_name <chr>, aisle_id <int>,
    ## #   department_id <int>, aisle <chr>, department <chr>

There are 1,384,617 observations and 15 variables in the instacart
dataset. Most variables are integer variables, with the rest (eval\_set,
product\_name, aisle, and department) as character variables. *key
variables *illustrative examples

``` r
instacart %>%
  count(aisle) %>%
  arrange(desc(n))
```

    ## # A tibble: 134 x 2
    ##    aisle                              n
    ##    <chr>                          <int>
    ##  1 fresh vegetables              150609
    ##  2 fresh fruits                  150473
    ##  3 packaged vegetables fruits     78493
    ##  4 yogurt                         55240
    ##  5 packaged cheese                41699
    ##  6 water seltzer sparkling water  36617
    ##  7 milk                           32644
    ##  8 chips pretzels                 31269
    ##  9 soy lactosefree                26240
    ## 10 bread                          23635
    ## # … with 124 more rows
…
Mean Hour of Pink Lady Apples and Coffee Ice Cream Orders

``` r
library(p8105.datasets)
data("brfss_smart2010")
brfss_smart2010
```

    ## # A tibble: 134,203 x 23
    ##     Year Locationabbr Locationdesc Class Topic Question Response
    ##    <int> <chr>        <chr>        <chr> <chr> <chr>    <chr>   
    ##  1  2010 AL           AL - Jeffer… Heal… Over… How is … Excelle…
    ##  2  2010 AL           AL - Jeffer… Heal… Over… How is … Very go…
    ##  3  2010 AL           AL - Jeffer… Heal… Over… How is … Good    
    ##  4  2010 AL           AL - Jeffer… Heal… Over… How is … Fair    
    ##  5  2010 AL           AL - Jeffer… Heal… Over… How is … Poor    
    ##  6  2010 AL           AL - Jeffer… Heal… Fair… Health … Good or…
    ##  7  2010 AL           AL - Jeffer… Heal… Fair… Health … Fair or…
    ##  8  2010 AL           AL - Jeffer… Heal… Heal… Do you … Yes     
    ##  9  2010 AL           AL - Jeffer… Heal… Heal… Do you … No      
    ## 10  2010 AL           AL - Jeffer… Heal… Unde… Adults … Yes     
    ## # … with 134,193 more rows, and 16 more variables: Sample_Size <int>,
    ## #   Data_value <dbl>, Confidence_limit_Low <dbl>,
    ## #   Confidence_limit_High <dbl>, Display_order <int>,
    ## #   Data_value_unit <chr>, Data_value_type <chr>,
    ## #   Data_Value_Footnote_Symbol <chr>, Data_Value_Footnote <chr>,
    ## #   DataSource <chr>, ClassId <chr>, TopicId <chr>, LocationID <chr>,
    ## #   QuestionID <chr>, RESPID <chr>, GeoLocation <chr>
…
``` r
brfss = brfss_smart2010 %>%
  janitor::clean_names() %>%
  rename(
    state = locationabbr, 
    county = locationdesc,
    lcl = confidence_limit_low,
    ucl = confidence_limit_high) %>%
  filter(topic == "Overall Health") %>%
  mutate(response = factor(response, c("Poor", "Fair", "Good", "Very good", "Excellent")))
brfss
```

    ## # A tibble: 10,625 x 23
    ##     year state county class topic question response sample_size data_value
    ##    <int> <chr> <chr>  <chr> <chr> <chr>    <fct>          <int>      <dbl>
    ##  1  2010 AL    AL - … Heal… Over… How is … Excelle…          94       18.9
    ##  2  2010 AL    AL - … Heal… Over… How is … Very go…         148       30  
    ##  3  2010 AL    AL - … Heal… Over… How is … Good             208       33.1
    ##  4  2010 AL    AL - … Heal… Over… How is … Fair             107       12.5
    ##  5  2010 AL    AL - … Heal… Over… How is … Poor              45        5.5
    ##  6  2010 AL    AL - … Heal… Over… How is … Excelle…          91       15.6
    ##  7  2010 AL    AL - … Heal… Over… How is … Very go…         177       31.3
    ##  8  2010 AL    AL - … Heal… Over… How is … Good             224       31.2
    ##  9  2010 AL    AL - … Heal… Over… How is … Fair             120       15.5
    ## 10  2010 AL    AL - … Heal… Over… How is … Poor              66        6.4
    ## # … with 10,615 more rows, and 14 more variables: lcl <dbl>, ucl <dbl>,
    ## #   display_order <int>, data_value_unit <chr>, data_value_type <chr>,
    ## #   data_value_footnote_symbol <chr>, data_value_footnote <chr>,
    ## #   data_source <chr>, class_id <chr>, topic_id <chr>, location_id <chr>,
    ## #   question_id <chr>, respid <chr>, geo_location <chr>
…
